{"data_time": 0.009086587999973972, "eta_seconds": 2653.2606303760267, "iteration": 19, "loss_box_reg": 0.695079505443573, "loss_cls": 1.526745855808258, "lr": 1.9981e-05, "num_foreground": 2916.0, "time": 0.5326762960000053, "total_loss": 2.217266082763672}
{"data_time": 0.017039547999985416, "eta_seconds": 2611.8105435236585, "iteration": 39, "loss_box_reg": 0.40560106933116913, "loss_cls": 0.9552870988845825, "lr": 3.9961e-05, "num_foreground": 2841.0, "time": 0.5118894015000137, "total_loss": 1.3595440089702606}
{"data_time": 0.015960118500004228, "eta_seconds": 2598.738988225613, "iteration": 59, "loss_box_reg": 0.33692270517349243, "loss_cls": 0.8342133164405823, "lr": 5.9940999999999994e-05, "num_foreground": 3239.0, "time": 0.5137766269999986, "total_loss": 1.1600023210048676}
{"data_time": 0.009425884499989934, "eta_seconds": 2597.4627138530846, "iteration": 79, "loss_box_reg": 0.29749199748039246, "loss_cls": 0.581551730632782, "lr": 7.992100000000001e-05, "num_foreground": 3304.5, "time": 0.5329234840000368, "total_loss": 0.8902204632759094}
{"data_time": 0.008562839500001473, "eta_seconds": 2501.1427485459685, "iteration": 99, "loss_box_reg": 0.28186242282390594, "loss_cls": 0.4354496896266937, "lr": 9.9901e-05, "num_foreground": 3291.5, "time": 0.4897088424999936, "total_loss": 0.7095785737037659}
{"data_time": 0.009609129500006475, "eta_seconds": 2490.9360856259686, "iteration": 119, "loss_box_reg": 0.2704505920410156, "loss_cls": 0.35135675966739655, "lr": 0.000119881, "num_foreground": 3327.5, "time": 0.5155716609999956, "total_loss": 0.6120688319206238}
{"data_time": 0.009006817999960504, "eta_seconds": 2535.23769205201, "iteration": 139, "loss_box_reg": 0.2599102109670639, "loss_cls": 0.3133440911769867, "lr": 0.00013986100000000002, "num_foreground": 3500.0, "time": 0.5223507645000041, "total_loss": 0.5785797387361526}
{"data_time": 0.013383374499994716, "eta_seconds": 2470.522759785969, "iteration": 159, "loss_box_reg": 0.217781163752079, "loss_cls": 0.2473529577255249, "lr": 0.000159841, "num_foreground": 3109.5, "time": 0.4949841110000648, "total_loss": 0.4665326923131943}
{"data_time": 0.00979427800001531, "eta_seconds": 2518.2530356545194, "iteration": 179, "loss_box_reg": 0.22875001281499863, "loss_cls": 0.26336559653282166, "lr": 0.00017982099999999998, "num_foreground": 3169.5, "time": 0.5345716194999568, "total_loss": 0.494069367647171}
{"data_time": 0.009145832000058363, "eta_seconds": 2400.5666450814792, "iteration": 199, "loss_box_reg": 0.2279638946056366, "loss_cls": 0.22675783932209015, "lr": 0.00019980100000000002, "num_foreground": 3178.0, "time": 0.48805307349999794, "total_loss": 0.4580248147249222}
{"data_time": 0.008769210999957977, "eta_seconds": 2500.67672026183, "iteration": 219, "loss_box_reg": 0.21963851153850555, "loss_cls": 0.23648354411125183, "lr": 0.000219781, "num_foreground": 3312.5, "time": 0.5412443870000061, "total_loss": 0.4545253813266754}
{"data_time": 0.011432738000053178, "eta_seconds": 2491.185908537786, "iteration": 239, "loss_box_reg": 0.21866583079099655, "loss_cls": 0.21479672193527222, "lr": 0.000239761, "num_foreground": 3206.0, "time": 0.523765778999973, "total_loss": 0.43068210035562515}
{"data_time": 0.009169186000008267, "eta_seconds": 2480.7209393777866, "iteration": 259, "loss_box_reg": 0.21273969858884811, "loss_cls": 0.2146388366818428, "lr": 0.000259741, "num_foreground": 3332.0, "time": 0.5152915495000343, "total_loss": 0.4271482825279236}
{"data_time": 0.009582607999959691, "eta_seconds": 2470.2559702177878, "iteration": 279, "loss_box_reg": 0.20815744251012802, "loss_cls": 0.17939842492341995, "lr": 0.0002797210000000001, "num_foreground": 3053.0, "time": 0.5155169425000281, "total_loss": 0.3842969015240669}
{"data_time": 0.009572246999937306, "eta_seconds": 2459.7910010577884, "iteration": 299, "loss_box_reg": 0.21743950992822647, "loss_cls": 0.21789848804473877, "lr": 0.000299701, "num_foreground": 3104.0, "time": 0.5129565465000496, "total_loss": 0.4388553276658058}
{"data_time": 0.017705709000040315, "eta_seconds": 2453.09404731763, "iteration": 319, "loss_box_reg": 0.18600286543369293, "loss_cls": 0.1741488352417946, "lr": 0.000319681, "num_foreground": 2943.5, "time": 0.5429885344999548, "total_loss": 0.3583464026451111}
{"data_time": 0.008250938499998028, "eta_seconds": 2443.974058552085, "iteration": 339, "loss_box_reg": 0.17725393176078796, "loss_cls": 0.18345173448324203, "lr": 0.00033966100000000005, "num_foreground": 3041.0, "time": 0.5345226564999734, "total_loss": 0.36362316459417343}
{"data_time": 0.008701681499985625, "eta_seconds": 2433.7918269211823, "iteration": 359, "loss_box_reg": 0.19907112419605255, "loss_cls": 0.18259983509778976, "lr": 0.000359641, "num_foreground": 3289.5, "time": 0.529441621500041, "total_loss": 0.37843917310237885}
{"data_time": 0.008715066999968712, "eta_seconds": 2415.5107693849345, "iteration": 379, "loss_box_reg": 0.19932204484939575, "loss_cls": 0.176759235560894, "lr": 0.000379621, "num_foreground": 3244.5, "time": 0.485959585000046, "total_loss": 0.37556102126836777}
{"data_time": 0.013049177000027612, "eta_seconds": 2407.466155257793, "iteration": 399, "loss_box_reg": 0.20403186231851578, "loss_cls": 0.18685735017061234, "lr": 0.000399601, "num_foreground": 3127.5, "time": 0.5310977075000665, "total_loss": 0.3933653086423874}
{"data_time": 0.0091785669999922, "eta_seconds": 2399.451354562374, "iteration": 419, "loss_box_reg": 0.18391462415456772, "loss_cls": 0.1673523411154747, "lr": 0.000419581, "num_foreground": 2953.5, "time": 0.5319899350000128, "total_loss": 0.35222791135311127}
{"data_time": 0.008937776999971447, "eta_seconds": 2390.2076372176266, "iteration": 439, "loss_box_reg": 0.20798896253108978, "loss_cls": 0.1862158700823784, "lr": 0.000439561, "num_foreground": 3328.0, "time": 0.5339738705000059, "total_loss": 0.3897217810153961}
{"data_time": 0.011138500500010196, "eta_seconds": 2378.500022062375, "iteration": 459, "loss_box_reg": 0.19834709912538528, "loss_cls": 0.19082321971654892, "lr": 0.00045954100000000005, "num_foreground": 3271.0, "time": 0.4858421000000135, "total_loss": 0.3847704157233238}
{"data_time": 0.010067337999942083, "eta_seconds": 2365.6062786177968, "iteration": 479, "loss_box_reg": 0.20937911421060562, "loss_cls": 0.19406693428754807, "lr": 0.000479521, "num_foreground": 3596.5, "time": 0.49141880899998114, "total_loss": 0.4025298058986664}
{"data_time": 0.008938827999998011, "eta_seconds": 2360.374275581177, "iteration": 499, "loss_box_reg": 0.19468096643686295, "loss_cls": 0.18268687278032303, "lr": 0.000499501, "num_foreground": 3307.0, "time": 0.5473246639999729, "total_loss": 0.38408230245113373}
{"data_time": 0.009002786999928958, "eta_seconds": 2358.3752770939614, "iteration": 519, "loss_box_reg": 0.2037850320339203, "loss_cls": 0.18522214144468307, "lr": 0.000519481, "num_foreground": 3263.0, "time": 0.5402624664999962, "total_loss": 0.3945104777812958}
{"data_time": 0.008747507000009591, "eta_seconds": 2353.405782753028, "iteration": 539, "loss_box_reg": 0.18230951577425003, "loss_cls": 0.1747729703783989, "lr": 0.0005394610000000001, "num_foreground": 3145.0, "time": 0.5333797044999642, "total_loss": 0.3633517846465111}
{"data_time": 0.00936221500001011, "eta_seconds": 2343.691010695621, "iteration": 559, "loss_box_reg": 0.18528283387422562, "loss_cls": 0.16860931366682053, "lr": 0.000559441, "num_foreground": 3020.0, "time": 0.537077360000012, "total_loss": 0.35071461647748947}
{"data_time": 0.008894924999935938, "eta_seconds": 2330.9312054357238, "iteration": 579, "loss_box_reg": 0.18927369266748428, "loss_cls": 0.18592706322669983, "lr": 0.000579421, "num_foreground": 3338.0, "time": 0.49592288349998626, "total_loss": 0.3717814013361931}
{"data_time": 0.010340794499938966, "eta_seconds": 2322.58143167562, "iteration": 599, "loss_box_reg": 0.17236337065696716, "loss_cls": 0.15215973556041718, "lr": 0.000599401, "num_foreground": 3036.5, "time": 0.5317639735000057, "total_loss": 0.3201988413929939}
{"data_time": 0.008754029000044738, "eta_seconds": 2309.8415767957263, "iteration": 619, "loss_box_reg": 0.18854356557130814, "loss_cls": 0.18237509578466415, "lr": 0.000619381, "num_foreground": 3092.0, "time": 0.4963670595000167, "total_loss": 0.37138674408197403}
{"data_time": 0.008765331999995851, "eta_seconds": 2298.7181929668086, "iteration": 639, "loss_box_reg": 0.19056756794452667, "loss_cls": 0.17467483133077621, "lr": 0.000639361, "num_foreground": 3432.5, "time": 0.5264339729999961, "total_loss": 0.36978840827941895}
{"data_time": 0.0097853639999812, "eta_seconds": 2285.543890552558, "iteration": 659, "loss_box_reg": 0.18929950147867203, "loss_cls": 0.1796187087893486, "lr": 0.000659341, "num_foreground": 3167.0, "time": 0.49726241549996075, "total_loss": 0.36238452047109604}
{"data_time": 0.008905399000013858, "eta_seconds": 2274.188305687011, "iteration": 679, "loss_box_reg": 0.18881964683532715, "loss_cls": 0.16852515190839767, "lr": 0.0006793210000000001, "num_foreground": 3078.5, "time": 0.5107372345000272, "total_loss": 0.36405088752508163}
{"data_time": 0.008855547499990735, "eta_seconds": 2262.651448067896, "iteration": 699, "loss_box_reg": 0.20216868817806244, "loss_cls": 0.16802334040403366, "lr": 0.0006993009999999999, "num_foreground": 3092.5, "time": 0.49262411199998724, "total_loss": 0.3656565845012665}
{"data_time": 0.009405925499947898, "eta_seconds": 2253.135879807011, "iteration": 719, "loss_box_reg": 0.19283049553632736, "loss_cls": 0.17413614690303802, "lr": 0.000719281, "num_foreground": 3207.0, "time": 0.5385066290000395, "total_loss": 0.36590415239334106}
{"data_time": 0.009269730500079731, "eta_seconds": 2244.700584307523, "iteration": 739, "loss_box_reg": 0.1651453748345375, "loss_cls": 0.15947788953781128, "lr": 0.000739261, "num_foreground": 3085.0, "time": 0.537655703500036, "total_loss": 0.33267561346292496}
{"data_time": 0.009089301499955127, "eta_seconds": 2234.164557157523, "iteration": 759, "loss_box_reg": 0.17981195449829102, "loss_cls": 0.15673766285181046, "lr": 0.000759241, "num_foreground": 3066.0, "time": 0.5185462979999897, "total_loss": 0.3331995755434036}
{"data_time": 0.011455102000070383, "eta_seconds": 2223.628530007523, "iteration": 779, "loss_box_reg": 0.18202245980501175, "loss_cls": 0.17675485461950302, "lr": 0.0007792210000000001, "num_foreground": 3254.5, "time": 0.5263765789999297, "total_loss": 0.3603896275162697}
{"data_time": 0.009466477499984194, "eta_seconds": 2214.063998810922, "iteration": 799, "loss_box_reg": 0.17338749766349792, "loss_cls": 0.15819761157035828, "lr": 0.000799201, "num_foreground": 3355.0, "time": 0.5350102519999496, "total_loss": 0.3281640335917473}
{"data_time": 0.010398180000038337, "eta_seconds": 2205.342980506084, "iteration": 819, "loss_box_reg": 0.17427418380975723, "loss_cls": 0.15097549557685852, "lr": 0.000819181, "num_foreground": 3004.0, "time": 0.5337434774999679, "total_loss": 0.32153768837451935}
{"data_time": 0.00872184700000389, "eta_seconds": 2192.9826943709227, "iteration": 839, "loss_box_reg": 0.16709506511688232, "loss_cls": 0.14258484542369843, "lr": 0.0008391609999999999, "num_foreground": 3014.5, "time": 0.4933136479999689, "total_loss": 0.318251334130764}
{"data_time": 0.009087779999958912, "eta_seconds": 2181.4844214075224, "iteration": 859, "loss_box_reg": 0.1895139291882515, "loss_cls": 0.1764230579137802, "lr": 0.0008591409999999999, "num_foreground": 3151.5, "time": 0.4973419200000535, "total_loss": 0.362436018884182}
{"data_time": 0.00921820100001014, "eta_seconds": 2169.713516002555, "iteration": 879, "loss_box_reg": 0.17929232865571976, "loss_cls": 0.16058889031410217, "lr": 0.0008791210000000001, "num_foreground": 3128.0, "time": 0.4986031824999486, "total_loss": 0.33988121896982193}
{"data_time": 0.009018969999999626, "eta_seconds": 2159.1834819525548, "iteration": 899, "loss_box_reg": 0.18564178049564362, "loss_cls": 0.15498348325490952, "lr": 0.000899101, "num_foreground": 3003.0, "time": 0.5128465979999532, "total_loss": 0.34062526375055313}
{"data_time": 0.009688131499956398, "eta_seconds": 2147.8737504070104, "iteration": 919, "loss_box_reg": 0.2001393362879753, "loss_cls": 0.17682674527168274, "lr": 0.0009190810000000001, "num_foreground": 3579.5, "time": 0.49930371400000695, "total_loss": 0.3712586835026741}
{"data_time": 0.008818625000003522, "eta_seconds": 2137.34753746701, "iteration": 939, "loss_box_reg": 0.1813085973262787, "loss_cls": 0.15572147071361542, "lr": 0.0009390609999999999, "num_foreground": 3265.0, "time": 0.5257673194999484, "total_loss": 0.3337416648864746}
{"data_time": 0.012766916499970193, "eta_seconds": 2125.8717743879024, "iteration": 959, "loss_box_reg": 0.17203432321548462, "loss_cls": 0.14800196886062622, "lr": 0.000959041, "num_foreground": 2962.0, "time": 0.4887904345000038, "total_loss": 0.3184337317943573}
{"data_time": 0.009019082999998318, "eta_seconds": 2110.9708491930137, "iteration": 979, "loss_box_reg": 0.18746492266654968, "loss_cls": 0.17006342858076096, "lr": 0.000979021, "num_foreground": 3187.0, "time": 0.48702210749996766, "total_loss": 0.3528195098042488}
{"data_time": 0.009378598000012062, "eta_seconds": 2103.2423971795106, "iteration": 999, "loss_box_reg": 0.1844690889120102, "loss_cls": 0.1685759276151657, "lr": 0.000999001, "num_foreground": 3099.5, "time": 0.5324303994999582, "total_loss": 0.35022150725126266}
{"data_time": 0.008621046500024931, "eta_seconds": 2093.3251534560554, "iteration": 1019, "loss_box_reg": 0.16584467142820358, "loss_cls": 0.15122059732675552, "lr": 0.001, "num_foreground": 2918.5, "time": 0.5376291965000064, "total_loss": 0.3211250752210617}
{"data_time": 0.009994941500053756, "eta_seconds": 2082.2152299995105, "iteration": 1039, "loss_box_reg": 0.1859852746129036, "loss_cls": 0.17293774336576462, "lr": 0.001, "num_foreground": 3318.0, "time": 0.5113366154999994, "total_loss": 0.37165019661188126}
{"data_time": 0.008964307500036739, "eta_seconds": 2071.7016464095104, "iteration": 1059, "loss_box_reg": 0.16732189059257507, "loss_cls": 0.14630069583654404, "lr": 0.001, "num_foreground": 2981.5, "time": 0.5139294940000809, "total_loss": 0.30621563643217087}
{"data_time": 0.009390348000010817, "eta_seconds": 2062.7426942279053, "iteration": 1079, "loss_box_reg": 0.1841430366039276, "loss_cls": 0.16513872891664505, "lr": 0.001, "num_foreground": 3010.0, "time": 0.5372564504999673, "total_loss": 0.33982911705970764}
{"data_time": 0.008975264999889987, "eta_seconds": 2054.034075043498, "iteration": 1099, "loss_box_reg": 0.16949903219938278, "loss_cls": 0.1507982239127159, "lr": 0.001, "num_foreground": 3466.0, "time": 0.5318486144999497, "total_loss": 0.31903957575559616}
{"data_time": 0.009472916500044448, "eta_seconds": 2042.6116210070097, "iteration": 1119, "loss_box_reg": 0.17377576231956482, "loss_cls": 0.14526981115341187, "lr": 0.001, "num_foreground": 3068.0, "time": 0.5236946575000729, "total_loss": 0.3221338093280792}
{"data_time": 0.014238905499951215, "eta_seconds": 2033.2664551484208, "iteration": 1139, "loss_box_reg": 0.1789645329117775, "loss_cls": 0.15168123692274094, "lr": 0.001, "num_foreground": 3201.0, "time": 0.5175892290000093, "total_loss": 0.33426105976104736}
{"data_time": 0.009104477000050792, "eta_seconds": 2023.6306253015687, "iteration": 1159, "loss_box_reg": 0.19447994977235794, "loss_cls": 0.1760973110795021, "lr": 0.001, "num_foreground": 3376.0, "time": 0.5348211944999548, "total_loss": 0.36494044959545135}
{"data_time": 0.008866811000075359, "eta_seconds": 2013.278133009368, "iteration": 1179, "loss_box_reg": 0.17811647057533264, "loss_cls": 0.16209547966718674, "lr": 0.001, "num_foreground": 3045.5, "time": 0.5307934710000382, "total_loss": 0.3436468094587326}
{"data_time": 0.009124310000061087, "eta_seconds": 2004.4284814048335, "iteration": 1199, "loss_box_reg": 0.17608072608709335, "loss_cls": 0.15738381445407867, "lr": 0.001, "num_foreground": 3246.0, "time": 0.5392609175000871, "total_loss": 0.32999158650636673}
{"data_time": 0.012165515499987123, "eta_seconds": 1993.8816333048344, "iteration": 1219, "loss_box_reg": 0.17239288985729218, "loss_cls": 0.14846713095903397, "lr": 0.001, "num_foreground": 3083.0, "time": 0.5336924785000292, "total_loss": 0.3155434876680374}
{"data_time": 0.009177456499855907, "eta_seconds": 1984.8185880885717, "iteration": 1239, "loss_box_reg": 0.1680442914366722, "loss_cls": 0.15198391675949097, "lr": 0.001, "num_foreground": 3129.5, "time": 0.535600684500082, "total_loss": 0.315718449652195}
{"data_time": 0.009224886000083643, "eta_seconds": 1974.5494879618284, "iteration": 1259, "loss_box_reg": 0.1647464707493782, "loss_cls": 0.13737017661333084, "lr": 0.001, "num_foreground": 3199.5, "time": 0.5380549679999831, "total_loss": 0.3149515241384506}
{"data_time": 0.011685497999906147, "eta_seconds": 1963.1853783382496, "iteration": 1279, "loss_box_reg": 0.18014869838953018, "loss_cls": 0.15968838334083557, "lr": 0.001, "num_foreground": 2899.0, "time": 0.4827286140000524, "total_loss": 0.3479810133576393}
{"data_time": 0.009089047000088613, "eta_seconds": 1952.5418735329683, "iteration": 1299, "loss_box_reg": 0.181830532848835, "loss_cls": 0.1463715359568596, "lr": 0.001, "num_foreground": 3170.0, "time": 0.5216130955000153, "total_loss": 0.330117903649807}
{"data_time": 0.01076389599995764, "eta_seconds": 1940.0070410909316, "iteration": 1319, "loss_box_reg": 0.18375211209058762, "loss_cls": 0.1581091731786728, "lr": 0.001, "num_foreground": 3234.5, "time": 0.4902590645000373, "total_loss": 0.34715838730335236}
{"data_time": 0.00937433949991373, "eta_seconds": 1925.9630205479116, "iteration": 1339, "loss_box_reg": 0.16938962787389755, "loss_cls": 0.15332748740911484, "lr": 0.001, "num_foreground": 3015.0, "time": 0.48167169750001904, "total_loss": 0.3152705579996109}
{"data_time": 0.010842406000051596, "eta_seconds": 1913.9978925595096, "iteration": 1359, "loss_box_reg": 0.160281240940094, "loss_cls": 0.14371740818023682, "lr": 0.001, "num_foreground": 2862.0, "time": 0.484853414500094, "total_loss": 0.3131358101963997}
{"data_time": 0.009166286500089882, "eta_seconds": 1908.3850844309327, "iteration": 1379, "loss_box_reg": 0.16916637867689133, "loss_cls": 0.14462226629257202, "lr": 0.001, "num_foreground": 3104.0, "time": 0.5377463835000071, "total_loss": 0.3109181672334671}
{"data_time": 0.008960955500015189, "eta_seconds": 1896.7963557597416, "iteration": 1399, "loss_box_reg": 0.19552834331989288, "loss_cls": 0.16865187138319016, "lr": 0.001, "num_foreground": 3293.0, "time": 0.508232781500169, "total_loss": 0.3677653521299362}
{"data_time": 0.00869208900007834, "eta_seconds": 1886.822558049345, "iteration": 1419, "loss_box_reg": 0.17211559414863586, "loss_cls": 0.15041843056678772, "lr": 0.001, "num_foreground": 2892.5, "time": 0.5435383004999039, "total_loss": 0.3158194199204445}
{"data_time": 0.00928497550000884, "eta_seconds": 1876.284593469343, "iteration": 1439, "loss_box_reg": 0.1908104419708252, "loss_cls": 0.16589926928281784, "lr": 0.001, "num_foreground": 3196.0, "time": 0.5363125694999553, "total_loss": 0.36209356039762497}
{"data_time": 0.009069925499943565, "eta_seconds": 1864.889673249341, "iteration": 1459, "loss_box_reg": 0.16568401455879211, "loss_cls": 0.14745692908763885, "lr": 0.001, "num_foreground": 3160.0, "time": 0.48414524500014977, "total_loss": 0.3204890340566635}
{"data_time": 0.01016324900001564, "eta_seconds": 1853.058880788313, "iteration": 1479, "loss_box_reg": 0.18202485889196396, "loss_cls": 0.16377130150794983, "lr": 0.001, "num_foreground": 3312.5, "time": 0.48040165550003167, "total_loss": 0.34228143841028214}
{"data_time": 0.011153090999982851, "eta_seconds": 1838.63370311528, "iteration": 1499, "loss_box_reg": 0.17723927646875381, "loss_cls": 0.1478251814842224, "lr": 0.001, "num_foreground": 3402.5, "time": 0.5103310910000118, "total_loss": 0.3284287303686142}
{"data_time": 0.008796547499969165, "eta_seconds": 1827.6137898674283, "iteration": 1519, "loss_box_reg": 0.15485679358243942, "loss_cls": 0.14607395231723785, "lr": 0.001, "num_foreground": 2915.0, "time": 0.5286716709999837, "total_loss": 0.30282315611839294}
{"data_time": 0.008642349999945509, "eta_seconds": 1815.5523756491623, "iteration": 1539, "loss_box_reg": 0.18434620648622513, "loss_cls": 0.15412957221269608, "lr": 0.001, "num_foreground": 3353.0, "time": 0.5174100870000302, "total_loss": 0.3441707417368889}
{"data_time": 0.00975124449996656, "eta_seconds": 1806.2386158931015, "iteration": 1559, "loss_box_reg": 0.17111259698867798, "loss_cls": 0.16221047192811966, "lr": 0.001, "num_foreground": 3135.5, "time": 0.5446718670001474, "total_loss": 0.33332306891679764}
{"data_time": 0.009018330000003516, "eta_seconds": 1796.619793875285, "iteration": 1579, "loss_box_reg": 0.17808331549167633, "loss_cls": 0.15780774503946304, "lr": 0.001, "num_foreground": 3336.0, "time": 0.5327993529998594, "total_loss": 0.334417425096035}
{"data_time": 0.010351121499979854, "eta_seconds": 1785.84900306733, "iteration": 1599, "loss_box_reg": 0.1679210439324379, "loss_cls": 0.13048464059829712, "lr": 0.001, "num_foreground": 2992.5, "time": 0.5282518154999707, "total_loss": 0.2983427122235298}
{"data_time": 0.009139534000041749, "eta_seconds": 1775.347097727328, "iteration": 1619, "loss_box_reg": 0.17543451488018036, "loss_cls": 0.14200449734926224, "lr": 0.001, "num_foreground": 3002.0, "time": 0.49164731299993036, "total_loss": 0.31710971891880035}
{"data_time": 0.008901730500042504, "eta_seconds": 1764.6107290274135, "iteration": 1639, "loss_box_reg": 0.17434147000312805, "loss_cls": 0.1613461598753929, "lr": 0.001, "num_foreground": 3334.5, "time": 0.5131409489999896, "total_loss": 0.3297184705734253}
{"data_time": 0.008748443000058614, "eta_seconds": 1754.54365516953, "iteration": 1659, "loss_box_reg": 0.17376352846622467, "loss_cls": 0.16086483746767044, "lr": 0.001, "num_foreground": 3020.5, "time": 0.529423276999978, "total_loss": 0.3419030010700226}
{"data_time": 0.009608041000092271, "eta_seconds": 1747.2612179877024, "iteration": 1679, "loss_box_reg": 0.1678406149148941, "loss_cls": 0.1625918745994568, "lr": 0.001, "num_foreground": 2906.5, "time": 0.542553440000006, "total_loss": 0.33870847523212433}
{"data_time": 0.008807375500055059, "eta_seconds": 1738.7738879097215, "iteration": 1699, "loss_box_reg": 0.17067129164934158, "loss_cls": 0.14239651709794998, "lr": 0.001, "num_foreground": 3183.0, "time": 0.5379969785000185, "total_loss": 0.3116024434566498}
{"data_time": 0.009285596499921667, "eta_seconds": 1727.8976457027618, "iteration": 1719, "loss_box_reg": 0.17061086744070053, "loss_cls": 0.13611091673374176, "lr": 0.001, "num_foreground": 3274.5, "time": 0.5239940950000346, "total_loss": 0.30841006338596344}
{"data_time": 0.011631054499957827, "eta_seconds": 1715.6937163077077, "iteration": 1739, "loss_box_reg": 0.1874927058815956, "loss_cls": 0.15146413445472717, "lr": 0.001, "num_foreground": 3321.5, "time": 0.5218964289999803, "total_loss": 0.33865441381931305}
{"data_time": 0.009298677500055419, "eta_seconds": 1702.819200981512, "iteration": 1759, "loss_box_reg": 0.1704735904932022, "loss_cls": 0.15432799607515335, "lr": 0.001, "num_foreground": 2992.5, "time": 0.4931435675000557, "total_loss": 0.31855451315641403}
{"data_time": 0.008717982500002108, "eta_seconds": 1692.0117920017547, "iteration": 1779, "loss_box_reg": 0.17693018168210983, "loss_cls": 0.16085969656705856, "lr": 0.001, "num_foreground": 3449.0, "time": 0.5119209465000267, "total_loss": 0.3314369171857834}
{"data_time": 0.01244639549997828, "eta_seconds": 1681.803228121512, "iteration": 1799, "loss_box_reg": 0.1675204485654831, "loss_cls": 0.14212040603160858, "lr": 0.001, "num_foreground": 3134.5, "time": 0.5349431919999006, "total_loss": 0.31257861852645874}
{"data_time": 0.012285805999908916, "eta_seconds": 1669.7602549130938, "iteration": 1819, "loss_box_reg": 0.18791544437408447, "loss_cls": 0.1575644239783287, "lr": 0.001, "num_foreground": 3637.5, "time": 0.4967764215000443, "total_loss": 0.3465283736586571}
{"data_time": 0.00946053849997952, "eta_seconds": 1660.1027138429217, "iteration": 1839, "loss_box_reg": 0.15908603370189667, "loss_cls": 0.14159944653511047, "lr": 0.001, "num_foreground": 3088.5, "time": 0.5312648919999674, "total_loss": 0.29646502435207367}
{"data_time": 0.008948868000061339, "eta_seconds": 1649.3521806949243, "iteration": 1859, "loss_box_reg": 0.15887543559074402, "loss_cls": 0.13420580700039864, "lr": 0.001, "num_foreground": 2875.5, "time": 0.4935648194999658, "total_loss": 0.288231510668993}
{"data_time": 0.008932090999905995, "eta_seconds": 1639.0954033229227, "iteration": 1879, "loss_box_reg": 0.17922870814800262, "loss_cls": 0.14771437644958496, "lr": 0.001, "num_foreground": 3061.5, "time": 0.5166786905000436, "total_loss": 0.32209572941064835}
{"data_time": 0.00940644299998894, "eta_seconds": 1627.9913820590896, "iteration": 1899, "loss_box_reg": 0.17636598646640778, "loss_cls": 0.1453099325299263, "lr": 0.001, "num_foreground": 3195.5, "time": 0.49013452700000926, "total_loss": 0.3174053207039833}
{"data_time": 0.009145933000013429, "eta_seconds": 1617.8459308249162, "iteration": 1919, "loss_box_reg": 0.17459174245595932, "loss_cls": 0.16266538947820663, "lr": 0.001, "num_foreground": 3136.5, "time": 0.5280204519999643, "total_loss": 0.34058893471956253}
{"data_time": 0.01014322849994187, "eta_seconds": 1605.167546937792, "iteration": 1939, "loss_box_reg": 0.14963438361883163, "loss_cls": 0.13241137564182281, "lr": 0.001, "num_foreground": 2756.0, "time": 0.495070463500042, "total_loss": 0.27900201082229614}
{"data_time": 0.009406361500055027, "eta_seconds": 1596.4920325190878, "iteration": 1959, "loss_box_reg": 0.18568046391010284, "loss_cls": 0.15060490369796753, "lr": 0.001, "num_foreground": 3333.0, "time": 0.5171363265000082, "total_loss": 0.33777086436748505}
{"data_time": 0.009179206500107284, "eta_seconds": 1586.5771270229252, "iteration": 1979, "loss_box_reg": 0.1628580242395401, "loss_cls": 0.1492864042520523, "lr": 0.001, "num_foreground": 3109.5, "time": 0.49515289049986677, "total_loss": 0.31271038204431534}
{"data_time": 0.009467781500006822, "eta_seconds": 1574.642381892128, "iteration": 1999, "loss_box_reg": 0.1533689871430397, "loss_cls": 0.12797755002975464, "lr": 0.001, "num_foreground": 3233.0, "time": 0.5095929070000693, "total_loss": 0.2769114337861538}
{"data_time": 0.010286503999964225, "eta_seconds": 1558.86745683355, "iteration": 2019, "loss_box_reg": 0.1615322157740593, "loss_cls": 0.1455002948641777, "lr": 0.001, "num_foreground": 2974.5, "time": 0.5079433129999416, "total_loss": 0.3120382949709892}
{"data_time": 0.008745152999836137, "eta_seconds": 1548.4087687635497, "iteration": 2039, "loss_box_reg": 0.1664683297276497, "loss_cls": 0.1553754359483719, "lr": 0.001, "num_foreground": 2971.0, "time": 0.5255684825000344, "total_loss": 0.32275062054395676}
{"data_time": 0.009191284000053201, "eta_seconds": 1536.024321245952, "iteration": 2059, "loss_box_reg": 0.1724117547273636, "loss_cls": 0.14984028041362762, "lr": 0.001, "num_foreground": 3253.0, "time": 0.48320442900001126, "total_loss": 0.32970762997865677}
{"data_time": 0.009065509500032931, "eta_seconds": 1522.4848453594082, "iteration": 2079, "loss_box_reg": 0.17511393129825592, "loss_cls": 0.1534356325864792, "lr": 0.001, "num_foreground": 3272.0, "time": 0.510185942000021, "total_loss": 0.3204646110534668}
{"data_time": 0.012677345499923831, "eta_seconds": 1511.045139187771, "iteration": 2099, "loss_box_reg": 0.1681467890739441, "loss_cls": 0.14381316304206848, "lr": 0.001, "num_foreground": 3124.0, "time": 0.4983790259999523, "total_loss": 0.3090757131576538}
{"data_time": 0.009080743999902552, "eta_seconds": 1500.0614900547246, "iteration": 2119, "loss_box_reg": 0.17251486331224442, "loss_cls": 0.14132145792245865, "lr": 0.001, "num_foreground": 3214.0, "time": 0.497907132000023, "total_loss": 0.3102906569838524}
{"data_time": 0.010389048499973796, "eta_seconds": 1488.5239653184378, "iteration": 2139, "loss_box_reg": 0.17759859561920166, "loss_cls": 0.15324602276086807, "lr": 0.001, "num_foreground": 3264.0, "time": 0.4917816345000574, "total_loss": 0.34657423943281174}
{"data_time": 0.01018126050007595, "eta_seconds": 1478.5754947201503, "iteration": 2159, "loss_box_reg": 0.15715517848730087, "loss_cls": 0.14408451318740845, "lr": 0.001, "num_foreground": 3505.5, "time": 0.5343840334999186, "total_loss": 0.3001948893070221}
{"data_time": 0.0087801934998879, "eta_seconds": 1468.0524918608298, "iteration": 2179, "loss_box_reg": 0.15395206212997437, "loss_cls": 0.13656390458345413, "lr": 0.001, "num_foreground": 3105.5, "time": 0.5359349540000267, "total_loss": 0.28938989341259}
{"data_time": 0.013425027999915073, "eta_seconds": 1458.7602243945603, "iteration": 2199, "loss_box_reg": 0.16799476742744446, "loss_cls": 0.13352635502815247, "lr": 0.001, "num_foreground": 3178.5, "time": 0.5438798835000398, "total_loss": 0.300510473549366}
{"data_time": 0.009451419000015449, "eta_seconds": 1448.5406866877597, "iteration": 2219, "loss_box_reg": 0.17114561051130295, "loss_cls": 0.15035349130630493, "lr": 0.001, "num_foreground": 3272.5, "time": 0.5347482229999514, "total_loss": 0.3266048952937126}
{"data_time": 0.011510047500109977, "eta_seconds": 1436.8284048308228, "iteration": 2239, "loss_box_reg": 0.1548009216785431, "loss_cls": 0.14438262581825256, "lr": 0.001, "num_foreground": 2776.5, "time": 0.5099639879999813, "total_loss": 0.30350223928689957}
{"data_time": 0.009535858499930328, "eta_seconds": 1427.1671448247137, "iteration": 2259, "loss_box_reg": 0.15373925864696503, "loss_cls": 0.1456328183412552, "lr": 0.001, "num_foreground": 2787.5, "time": 0.535995496000055, "total_loss": 0.29084473103284836}
{"data_time": 0.009533759000078135, "eta_seconds": 1417.7358214083074, "iteration": 2279, "loss_box_reg": 0.1646968573331833, "loss_cls": 0.14172988384962082, "lr": 0.001, "num_foreground": 2986.5, "time": 0.5288587860000007, "total_loss": 0.3005804345011711}
{"data_time": 0.011491137999996681, "eta_seconds": 1406.3401890447105, "iteration": 2299, "loss_box_reg": 0.174757719039917, "loss_cls": 0.14772190898656845, "lr": 0.001, "num_foreground": 3344.0, "time": 0.4955034754998451, "total_loss": 0.3126291334629059}
{"data_time": 0.01386649450000732, "eta_seconds": 1397.9616156239836, "iteration": 2319, "loss_box_reg": 0.16932287067174911, "loss_cls": 0.14789095520973206, "lr": 0.001, "num_foreground": 3255.0, "time": 0.5366163510000206, "total_loss": 0.3202980160713196}
{"data_time": 0.00955029650015149, "eta_seconds": 1390.180697781081, "iteration": 2339, "loss_box_reg": 0.15489882975816727, "loss_cls": 0.12991148233413696, "lr": 0.001, "num_foreground": 2950.0, "time": 0.4896584425000583, "total_loss": 0.2822418585419655}
{"data_time": 0.011025855499951831, "eta_seconds": 1379.7321393610805, "iteration": 2359, "loss_box_reg": 0.1579044759273529, "loss_cls": 0.13383053988218307, "lr": 0.001, "num_foreground": 2997.5, "time": 0.48644963850017575, "total_loss": 0.29279515892267227}
{"data_time": 0.0089297260000194, "eta_seconds": 1366.675641383984, "iteration": 2379, "loss_box_reg": 0.15804454684257507, "loss_cls": 0.132825568318367, "lr": 0.001, "num_foreground": 2799.5, "time": 0.529434560000027, "total_loss": 0.29179442673921585}
{"data_time": 0.009396620499956043, "eta_seconds": 1357.3846724086816, "iteration": 2399, "loss_box_reg": 0.16821663826704025, "loss_cls": 0.14443955570459366, "lr": 0.001, "num_foreground": 3114.5, "time": 0.5090113224999868, "total_loss": 0.31356145441532135}
{"data_time": 0.009843344500040985, "eta_seconds": 1343.1561437408018, "iteration": 2419, "loss_box_reg": 0.17359034717082977, "loss_cls": 0.14447375386953354, "lr": 0.001, "num_foreground": 3404.0, "time": 0.49167522750019543, "total_loss": 0.3175794184207916}
{"data_time": 0.010079690499992466, "eta_seconds": 1332.7481147307994, "iteration": 2439, "loss_box_reg": 0.16172146797180176, "loss_cls": 0.13903314620256424, "lr": 0.001, "num_foreground": 3182.5, "time": 0.5261682005001376, "total_loss": 0.2996595427393913}
{"data_time": 0.009815876000061508, "eta_seconds": 1327.4893472610775, "iteration": 2459, "loss_box_reg": 0.1776217669248581, "loss_cls": 0.16465210914611816, "lr": 0.001, "num_foreground": 3259.0, "time": 0.5399823434999007, "total_loss": 0.34227387607097626}
{"data_time": 0.010725221500024418, "eta_seconds": 1319.2555112906073, "iteration": 2479, "loss_box_reg": 0.15294794738292694, "loss_cls": 0.12510523200035095, "lr": 0.001, "num_foreground": 3049.0, "time": 0.5029441195000572, "total_loss": 0.27723458409309387}
{"data_time": 0.008847171000070375, "eta_seconds": 1307.1344459705283, "iteration": 2499, "loss_box_reg": 0.18168293684720993, "loss_cls": 0.15255971997976303, "lr": 0.001, "num_foreground": 3171.5, "time": 0.47996351000006143, "total_loss": 0.33294255286455154}
{"data_time": 0.00956430250005269, "eta_seconds": 1296.1436720010756, "iteration": 2519, "loss_box_reg": 0.1714794635772705, "loss_cls": 0.1639481484889984, "lr": 0.001, "num_foreground": 3225.5, "time": 0.5305847739999763, "total_loss": 0.33996089547872543}
{"data_time": 0.008838953999998012, "eta_seconds": 1285.12738426067, "iteration": 2539, "loss_box_reg": 0.1689206063747406, "loss_cls": 0.14726608991622925, "lr": 0.001, "num_foreground": 3172.0, "time": 0.5089070354999876, "total_loss": 0.3195008635520935}
{"data_time": 0.008826440500001809, "eta_seconds": 1270.7155172590378, "iteration": 2559, "loss_box_reg": 0.16313735395669937, "loss_cls": 0.13784344494342804, "lr": 0.001, "num_foreground": 2954.0, "time": 0.4881336594999084, "total_loss": 0.3022434487938881}
{"data_time": 0.009060272000056102, "eta_seconds": 1256.337359513661, "iteration": 2579, "loss_box_reg": 0.16663087159395218, "loss_cls": 0.15911365300416946, "lr": 0.001, "num_foreground": 3118.5, "time": 0.48474303249997774, "total_loss": 0.32881247997283936}
{"data_time": 0.008649300999877596, "eta_seconds": 1249.0198137691364, "iteration": 2599, "loss_box_reg": 0.15458682924509048, "loss_cls": 0.12070562690496445, "lr": 0.001, "num_foreground": 2942.5, "time": 0.538584765499877, "total_loss": 0.27529245615005493}
{"data_time": 0.009394288499947834, "eta_seconds": 1240.6134284390587, "iteration": 2619, "loss_box_reg": 0.17268945276737213, "loss_cls": 0.14208871126174927, "lr": 0.001, "num_foreground": 3132.5, "time": 0.5293287224999403, "total_loss": 0.31452083587646484}
{"data_time": 0.020688114999984464, "eta_seconds": 1225.2013654736695, "iteration": 2639, "loss_box_reg": 0.16023335605859756, "loss_cls": 0.12982557713985443, "lr": 0.001, "num_foreground": 3174.0, "time": 0.4805929929999593, "total_loss": 0.29029157757759094}
{"data_time": 0.008764327999983834, "eta_seconds": 1217.807323629133, "iteration": 2659, "loss_box_reg": 0.16255482286214828, "loss_cls": 0.13826018571853638, "lr": 0.001, "num_foreground": 3000.5, "time": 0.534107350499994, "total_loss": 0.2967059351503849}
{"data_time": 0.008898663499962822, "eta_seconds": 1207.4031602491318, "iteration": 2679, "loss_box_reg": 0.16967779397964478, "loss_cls": 0.13617054373025894, "lr": 0.001, "num_foreground": 3089.0, "time": 0.5344591514999593, "total_loss": 0.30237945169210434}
{"data_time": 0.0093833015000655, "eta_seconds": 1190.0631523947181, "iteration": 2699, "loss_box_reg": 0.16711335629224777, "loss_cls": 0.13954494893550873, "lr": 0.001, "num_foreground": 3064.0, "time": 0.5127556454999649, "total_loss": 0.3016552999615669}
{"data_time": 0.008678658000121686, "eta_seconds": 1179.7192744947206, "iteration": 2719, "loss_box_reg": 0.16267216950654984, "loss_cls": 0.13382796198129654, "lr": 0.001, "num_foreground": 3160.0, "time": 0.5266079865000393, "total_loss": 0.29893456399440765}
{"data_time": 0.009613219500010928, "eta_seconds": 1165.3045757537307, "iteration": 2739, "loss_box_reg": 0.16944101452827454, "loss_cls": 0.15195143967866898, "lr": 0.001, "num_foreground": 3454.5, "time": 0.4952223244999914, "total_loss": 0.324150875210762}
{"data_time": 0.009005967000007331, "eta_seconds": 1159.0315186947255, "iteration": 2759, "loss_box_reg": 0.1650153324007988, "loss_cls": 0.15458974242210388, "lr": 0.001, "num_foreground": 3060.0, "time": 0.5131332365001526, "total_loss": 0.32049786299467087}
{"data_time": 0.0114585145000774, "eta_seconds": 1150.487451465601, "iteration": 2779, "loss_box_reg": 0.15555252879858017, "loss_cls": 0.13029389083385468, "lr": 0.001, "num_foreground": 2944.5, "time": 0.524406536000015, "total_loss": 0.27603213489055634}
{"data_time": 0.00887534950004465, "eta_seconds": 1141.6477566280541, "iteration": 2799, "loss_box_reg": 0.15725095570087433, "loss_cls": 0.1272886097431183, "lr": 0.001, "num_foreground": 3111.0, "time": 0.5383969580001349, "total_loss": 0.282575361430645}
{"data_time": 0.014909282000076018, "eta_seconds": 1131.2738560680536, "iteration": 2819, "loss_box_reg": 0.1639884188771248, "loss_cls": 0.14376069605350494, "lr": 0.001, "num_foreground": 3129.0, "time": 0.49748506700007056, "total_loss": 0.3119599148631096}
{"data_time": 0.009181686000147238, "eta_seconds": 1119.4071961355983, "iteration": 2839, "loss_box_reg": 0.14899978786706924, "loss_cls": 0.12940175831317902, "lr": 0.001, "num_foreground": 2961.5, "time": 0.5144929199998387, "total_loss": 0.2731744199991226}
{"data_time": 0.009035267499939437, "eta_seconds": 1110.5260549480527, "iteration": 2859, "loss_box_reg": 0.18099624663591385, "loss_cls": 0.16370967775583267, "lr": 0.001, "num_foreground": 3334.5, "time": 0.513674470000069, "total_loss": 0.3453799784183502}
{"data_time": 0.010704296000085378, "eta_seconds": 1091.2647359460143, "iteration": 2879, "loss_box_reg": 0.17338307201862335, "loss_cls": 0.14851155877113342, "lr": 0.001, "num_foreground": 3382.0, "time": 0.4799522840000918, "total_loss": 0.32182033360004425}
{"data_time": 0.009572125999966374, "eta_seconds": 1084.9476819004485, "iteration": 2899, "loss_box_reg": 0.1525377407670021, "loss_cls": 0.1291472315788269, "lr": 0.001, "num_foreground": 3256.0, "time": 0.5014939089999189, "total_loss": 0.27944086492061615}
{"data_time": 0.009007713000073636, "eta_seconds": 1082.395639895627, "iteration": 2919, "loss_box_reg": 0.15859562158584595, "loss_cls": 0.14083903282880783, "lr": 0.001, "num_foreground": 3012.0, "time": 0.545996477000017, "total_loss": 0.3052949756383896}
{"data_time": 0.009673081500068292, "eta_seconds": 1075.6763285759816, "iteration": 2939, "loss_box_reg": 0.15572603791952133, "loss_cls": 0.15174600481987, "lr": 0.001, "num_foreground": 2924.0, "time": 0.53468079199979, "total_loss": 0.3080979958176613}
{"data_time": 0.008766397500039602, "eta_seconds": 1068.5393741750026, "iteration": 2959, "loss_box_reg": 0.1587907075881958, "loss_cls": 0.12649575620889664, "lr": 0.001, "num_foreground": 3334.0, "time": 0.5393664664998141, "total_loss": 0.28930552303791046}
{"data_time": 0.009599356500075373, "eta_seconds": 1057.9251942420176, "iteration": 2979, "loss_box_reg": 0.15426445752382278, "loss_cls": 0.1376761496067047, "lr": 0.001, "num_foreground": 2906.0, "time": 0.49328562499977124, "total_loss": 0.2908131331205368}
{"data_time": 0.008899592000261691, "eta_seconds": 1047.9978690659339, "iteration": 2999, "loss_box_reg": 0.15314964205026627, "loss_cls": 0.12636273354291916, "lr": 0.001, "num_foreground": 2811.0, "time": 0.5126406849999512, "total_loss": 0.27920131385326385}
{"data_time": 0.008977177000133452, "eta_seconds": 1036.9865461620172, "iteration": 3019, "loss_box_reg": 0.1592404991388321, "loss_cls": 0.13232411444187164, "lr": 0.001, "num_foreground": 2729.5, "time": 0.48924937749984565, "total_loss": 0.2881314381957054}
{"data_time": 0.010031058500089785, "eta_seconds": 1027.0483864259352, "iteration": 3039, "loss_box_reg": 0.174837164580822, "loss_cls": 0.15305930376052856, "lr": 0.001, "num_foreground": 3291.0, "time": 0.5272682545000862, "total_loss": 0.3310025483369827}
{"data_time": 0.011654497500103389, "eta_seconds": 1019.3750593502747, "iteration": 3059, "loss_box_reg": 0.15658439695835114, "loss_cls": 0.13936714082956314, "lr": 0.001, "num_foreground": 3210.0, "time": 0.5183892835000279, "total_loss": 0.3070986494421959}
{"data_time": 0.009129513499829045, "eta_seconds": 1008.4212227775201, "iteration": 3079, "loss_box_reg": 0.16201727092266083, "loss_cls": 0.13627290725708008, "lr": 0.001, "num_foreground": 3191.5, "time": 0.492179981000163, "total_loss": 0.2992042824625969}
{"data_time": 0.00900452149994635, "eta_seconds": 998.9851361692521, "iteration": 3099, "loss_box_reg": 0.1651175618171692, "loss_cls": 0.14954590797424316, "lr": 0.001, "num_foreground": 3090.0, "time": 0.5403494015001797, "total_loss": 0.30702434480190277}
{"data_time": 0.010404147500139516, "eta_seconds": 989.9699426097014, "iteration": 3119, "loss_box_reg": 0.1620921716094017, "loss_cls": 0.1322781667113304, "lr": 0.001, "num_foreground": 3173.5, "time": 0.5317257579997658, "total_loss": 0.29900626093149185}
{"data_time": 0.009451825499809274, "eta_seconds": 980.4830599524594, "iteration": 3139, "loss_box_reg": 0.15529193729162216, "loss_cls": 0.13658177852630615, "lr": 0.001, "num_foreground": 3346.5, "time": 0.5356151794999278, "total_loss": 0.2918737158179283}
{"data_time": 0.008977235500196912, "eta_seconds": 970.0746284181814, "iteration": 3159, "loss_box_reg": 0.15886835753917694, "loss_cls": 0.13958735018968582, "lr": 0.001, "num_foreground": 3131.0, "time": 0.540514392499972, "total_loss": 0.28558697551488876}
{"bbox/AP": 35.99251394771511, "bbox/AP-activated7": NaN, "bbox/AP-non-activated": 35.99251394771511, "bbox/AP50": 90.55139801482606, "bbox/AP75": 15.539635607421431, "bbox/APl": 30.259437076222227, "bbox/APm": 36.38590238078297, "bbox/APs": 13.465346534653467, "data_time": 0.008761681999885695, "eta_seconds": 959.6126668231838, "iteration": 3179, "loss_box_reg": 0.15248094499111176, "loss_cls": 0.1318839266896248, "lr": 0.001, "num_foreground": 3189.0, "time": 0.5365320370001427, "total_loss": 0.27913277596235275}
{"data_time": 0.009303054000156408, "eta_seconds": 948.7968253712964, "iteration": 3199, "loss_box_reg": 0.15113714337348938, "loss_cls": 0.13277363777160645, "lr": 0.001, "num_foreground": 2787.5, "time": 0.5098059685001317, "total_loss": 0.28124984353780746}
{"data_time": 0.00902124350000122, "eta_seconds": 938.2604919412987, "iteration": 3219, "loss_box_reg": 0.15308226644992828, "loss_cls": 0.12732144445180893, "lr": 0.001, "num_foreground": 2728.0, "time": 0.5386839910001981, "total_loss": 0.2851468175649643}
{"data_time": 0.009664393000093696, "eta_seconds": 927.3283904909727, "iteration": 3239, "loss_box_reg": 0.1732289418578148, "loss_cls": 0.1441446915268898, "lr": 0.001, "num_foreground": 3273.0, "time": 0.48721408799997334, "total_loss": 0.3173736333847046}
{"data_time": 0.01176067049982521, "eta_seconds": 914.8580214932346, "iteration": 3259, "loss_box_reg": 0.1736646071076393, "loss_cls": 0.1513504758477211, "lr": 0.001, "num_foreground": 3408.0, "time": 0.5006433764997382, "total_loss": 0.3185790851712227}
{"data_time": 0.008730453499765645, "eta_seconds": 904.3484520332319, "iteration": 3279, "loss_box_reg": 0.1679827868938446, "loss_cls": 0.13518702238798141, "lr": 0.001, "num_foreground": 3258.5, "time": 0.5296303279999393, "total_loss": 0.29958657175302505}
{"data_time": 0.009064185499937594, "eta_seconds": 895.23597680973, "iteration": 3299, "loss_box_reg": 0.15435190498828888, "loss_cls": 0.13110768795013428, "lr": 0.001, "num_foreground": 3235.0, "time": 0.5199669695000466, "total_loss": 0.28227484971284866}
{"data_time": 0.009745336499918267, "eta_seconds": 884.9688033393129, "iteration": 3319, "loss_box_reg": 0.18413258343935013, "loss_cls": 0.15263404697179794, "lr": 0.001, "num_foreground": 3537.5, "time": 0.5343030835001628, "total_loss": 0.339138962328434}
{"data_time": 0.009031147500081715, "eta_seconds": 875.1453919723465, "iteration": 3339, "loss_box_reg": 0.14795739203691483, "loss_cls": 0.13408436626195908, "lr": 0.001, "num_foreground": 3106.0, "time": 0.53125599100008, "total_loss": 0.28529345989227295}
{"data_time": 0.009041222499945434, "eta_seconds": 865.9108547519905, "iteration": 3359, "loss_box_reg": 0.16328656673431396, "loss_cls": 0.13582590222358704, "lr": 0.001, "num_foreground": 3154.5, "time": 0.5436595010000929, "total_loss": 0.296394482254982}
{"data_time": 0.008921161999978722, "eta_seconds": 855.3574013119907, "iteration": 3379, "loss_box_reg": 0.15977469831705093, "loss_cls": 0.135480135679245, "lr": 0.001, "num_foreground": 3141.0, "time": 0.5295356809999703, "total_loss": 0.2927090972661972}
{"data_time": 0.008926861999952962, "eta_seconds": 844.8039478719908, "iteration": 3399, "loss_box_reg": 0.1688295304775238, "loss_cls": 0.1388571411371231, "lr": 0.001, "num_foreground": 3211.5, "time": 0.4984890845003065, "total_loss": 0.3062942922115326}
{"data_time": 0.009557399500181418, "eta_seconds": 834.6183955034177, "iteration": 3419, "loss_box_reg": 0.16143453866243362, "loss_cls": 0.1442171186208725, "lr": 0.001, "num_foreground": 2776.0, "time": 0.49113418549995913, "total_loss": 0.3044440299272537}
{"data_time": 0.009343868999849292, "eta_seconds": 825.3536139975728, "iteration": 3439, "loss_box_reg": 0.162852942943573, "loss_cls": 0.14443456381559372, "lr": 0.001, "num_foreground": 3068.0, "time": 0.5356234215000768, "total_loss": 0.3070010021328926}
{"data_time": 0.009170912500167105, "eta_seconds": 812.8824920698389, "iteration": 3459, "loss_box_reg": 0.16577070951461792, "loss_cls": 0.14174000918865204, "lr": 0.001, "num_foreground": 3224.0, "time": 0.49080699749993073, "total_loss": 0.30732783675193787}
{"data_time": 0.008900552499881087, "eta_seconds": 802.9440730934208, "iteration": 3479, "loss_box_reg": 0.1659153252840042, "loss_cls": 0.12999490648508072, "lr": 0.001, "num_foreground": 3031.5, "time": 0.5322611410001628, "total_loss": 0.2977253086864948}
{"data_time": 0.015073583499997767, "eta_seconds": 793.7366900064042, "iteration": 3499, "loss_box_reg": 0.15762505680322647, "loss_cls": 0.13633663952350616, "lr": 0.001, "num_foreground": 2965.0, "time": 0.5328213335001237, "total_loss": 0.2903096452355385}
{"data_time": 0.008422997000025134, "eta_seconds": 782.4863566644974, "iteration": 3519, "loss_box_reg": 0.15218865126371384, "loss_cls": 0.12364765256643295, "lr": 0.001, "num_foreground": 2920.5, "time": 0.4904799675002778, "total_loss": 0.2741589769721031}
{"data_time": 0.00902747449981689, "eta_seconds": 771.9193565744974, "iteration": 3539, "loss_box_reg": 0.16965340077877045, "loss_cls": 0.14101678878068924, "lr": 0.001, "num_foreground": 3073.0, "time": 0.5119465494999531, "total_loss": 0.3068403825163841}
{"data_time": 0.009863470000027519, "eta_seconds": 761.3523564844975, "iteration": 3559, "loss_box_reg": 0.15639638155698776, "loss_cls": 0.13460062444210052, "lr": 0.001, "num_foreground": 3052.5, "time": 0.4932682114999807, "total_loss": 0.2865094169974327}
{"data_time": 0.00962145950006743, "eta_seconds": 751.5353090382112, "iteration": 3579, "loss_box_reg": 0.17745445668697357, "loss_cls": 0.15238307416439056, "lr": 0.001, "num_foreground": 3631.5, "time": 0.5420300544999463, "total_loss": 0.3303171694278717}
{"data_time": 0.021655720999888217, "eta_seconds": 739.1176361372405, "iteration": 3599, "loss_box_reg": 0.156477652490139, "loss_cls": 0.12414271384477615, "lr": 0.001, "num_foreground": 3007.5, "time": 0.49171162849984285, "total_loss": 0.27039434388279915}
{"data_time": 0.009511909499906324, "eta_seconds": 727.5911369125988, "iteration": 3619, "loss_box_reg": 0.16456622630357742, "loss_cls": 0.1280510425567627, "lr": 0.001, "num_foreground": 3375.0, "time": 0.4794756745000086, "total_loss": 0.2947717159986496}
{"data_time": 0.009227712499978225, "eta_seconds": 718.8207909890382, "iteration": 3639, "loss_box_reg": 0.15443383902311325, "loss_cls": 0.12329785525798798, "lr": 0.001, "num_foreground": 2966.5, "time": 0.5300253215000339, "total_loss": 0.27188386023044586}
{"data_time": 0.009123630499971114, "eta_seconds": 706.9660999740291, "iteration": 3659, "loss_box_reg": 0.1666206568479538, "loss_cls": 0.1474568098783493, "lr": 0.001, "num_foreground": 3308.0, "time": 0.5087307405001411, "total_loss": 0.31751439720392227}
{"data_time": 0.010400029499805896, "eta_seconds": 696.7627326910099, "iteration": 3679, "loss_box_reg": 0.15285460650920868, "loss_cls": 0.11854468286037445, "lr": 0.001, "num_foreground": 3080.0, "time": 0.5391688524998699, "total_loss": 0.27496274560689926}
{"data_time": 0.009439531499992881, "eta_seconds": 685.3696121114642, "iteration": 3699, "loss_box_reg": 0.1553187146782875, "loss_cls": 0.1309433877468109, "lr": 0.001, "num_foreground": 2782.5, "time": 0.49131402800003343, "total_loss": 0.2854042649269104}
{"data_time": 0.009702319499865553, "eta_seconds": 675.6646938510096, "iteration": 3719, "loss_box_reg": 0.172272227704525, "loss_cls": 0.13806353509426117, "lr": 0.001, "num_foreground": 3090.5, "time": 0.539169376000018, "total_loss": 0.3096708282828331}
{"data_time": 0.009649169499652999, "eta_seconds": 665.1815850097773, "iteration": 3739, "loss_box_reg": 0.17165570706129074, "loss_cls": 0.14319583028554916, "lr": 0.001, "num_foreground": 3118.0, "time": 0.5154404565000732, "total_loss": 0.3155774846673012}
{"data_time": 0.009389100000134931, "eta_seconds": 655.6823555844978, "iteration": 3759, "loss_box_reg": 0.1655985713005066, "loss_cls": 0.1392294019460678, "lr": 0.001, "num_foreground": 3262.0, "time": 0.5393727564999153, "total_loss": 0.30320795625448227}
{"data_time": 0.008759223499964719, "eta_seconds": 644.0282100612844, "iteration": 3779, "loss_box_reg": 0.1731158122420311, "loss_cls": 0.158500038087368, "lr": 0.001, "num_foreground": 3185.0, "time": 0.4971356139999443, "total_loss": 0.32277195900678635}
{"data_time": 0.00861259450016405, "eta_seconds": 632.7566657726511, "iteration": 3799, "loss_box_reg": 0.16877787560224533, "loss_cls": 0.1522047519683838, "lr": 0.001, "num_foreground": 3439.5, "time": 0.5002008914996168, "total_loss": 0.31374819576740265}
{"data_time": 0.009414623499878871, "eta_seconds": 622.9813258497597, "iteration": 3819, "loss_box_reg": 0.1446375846862793, "loss_cls": 0.1172848753631115, "lr": 0.001, "num_foreground": 2940.5, "time": 0.5375844105001306, "total_loss": 0.2602907866239548}
{"data_time": 0.0088523944998542, "eta_seconds": 612.704243506751, "iteration": 3839, "loss_box_reg": 0.18251639604568481, "loss_cls": 0.15692423284053802, "lr": 0.001, "num_foreground": 3704.0, "time": 0.5324365614999351, "total_loss": 0.3412206768989563}
{"data_time": 0.00882743950000986, "eta_seconds": 601.3562113297842, "iteration": 3859, "loss_box_reg": 0.14152098447084427, "loss_cls": 0.1227249950170517, "lr": 0.001, "num_foreground": 2879.0, "time": 0.48700637600018126, "total_loss": 0.2702149637043476}
{"data_time": 0.009014975500122091, "eta_seconds": 592.0632672290315, "iteration": 3879, "loss_box_reg": 0.1620892733335495, "loss_cls": 0.13444659858942032, "lr": 0.001, "num_foreground": 3173.5, "time": 0.5342715404997307, "total_loss": 0.3025301322340965}
{"data_time": 0.009872518000065611, "eta_seconds": 581.840257315519, "iteration": 3899, "loss_box_reg": 0.16057798266410828, "loss_cls": 0.14190208166837692, "lr": 0.001, "num_foreground": 2887.5, "time": 0.5267279155000324, "total_loss": 0.30538687855005264}
{"data_time": 0.009183539999867207, "eta_seconds": 569.7336235297955, "iteration": 3919, "loss_box_reg": 0.17698924988508224, "loss_cls": 0.15158610045909882, "lr": 0.001, "num_foreground": 3354.5, "time": 0.48899471350023305, "total_loss": 0.32857535034418106}
{"data_time": 0.009017294999921432, "eta_seconds": 559.5876582332678, "iteration": 3939, "loss_box_reg": 0.17242547124624252, "loss_cls": 0.14011476933956146, "lr": 0.001, "num_foreground": 3188.5, "time": 0.5401917119997961, "total_loss": 0.30903487652540207}
{"data_time": 0.018637129500120864, "eta_seconds": 548.9351242409634, "iteration": 3959, "loss_box_reg": 0.16580166667699814, "loss_cls": 0.13978371769189835, "lr": 0.001, "num_foreground": 3442.5, "time": 0.5348847634998037, "total_loss": 0.30259624123573303}
{"data_time": 0.009067338000022573, "eta_seconds": 538.7119503851916, "iteration": 3979, "loss_box_reg": 0.14698664844036102, "loss_cls": 0.12091338634490967, "lr": 0.001, "num_foreground": 3138.5, "time": 0.5313357630000155, "total_loss": 0.27084842324256897}
{"data_time": 0.009940838000375152, "eta_seconds": 527.3289636614725, "iteration": 3999, "loss_box_reg": 0.17332778126001358, "loss_cls": 0.14219098538160324, "lr": 0.001, "num_foreground": 3086.5, "time": 0.47829830749969915, "total_loss": 0.3185930475592613}
{"data_time": 0.009280316500053232, "eta_seconds": 517.4378985013268, "iteration": 4019, "loss_box_reg": 0.17074724286794662, "loss_cls": 0.13157833367586136, "lr": 5e-05, "num_foreground": 3278.5, "time": 0.5292573505000746, "total_loss": 0.3012567088007927}
{"data_time": 0.009008155499941495, "eta_seconds": 506.6106996230767, "iteration": 4039, "loss_box_reg": 0.1541137620806694, "loss_cls": 0.1259993389248848, "lr": 5e-05, "num_foreground": 3211.0, "time": 0.483970440000121, "total_loss": 0.2755020186305046}
{"data_time": 0.00878526199994667, "eta_seconds": 495.84463287267795, "iteration": 4059, "loss_box_reg": 0.16561343520879745, "loss_cls": 0.13797622174024582, "lr": 5e-05, "num_foreground": 3069.0, "time": 0.5112055079998754, "total_loss": 0.3083617091178894}
{"data_time": 0.008633541500103092, "eta_seconds": 485.30595842267417, "iteration": 4079, "loss_box_reg": 0.17846887558698654, "loss_cls": 0.14060061424970627, "lr": 5e-05, "num_foreground": 3122.0, "time": 0.4954647380000097, "total_loss": 0.3232576549053192}
{"data_time": 0.008817397500024526, "eta_seconds": 474.0251762234295, "iteration": 4099, "loss_box_reg": 0.15130764991044998, "loss_cls": 0.11250200495123863, "lr": 5e-05, "num_foreground": 3150.5, "time": 0.4909914770000796, "total_loss": 0.26343922689557076}
{"data_time": 0.009791097499828538, "eta_seconds": 463.5029747534311, "iteration": 4119, "loss_box_reg": 0.1406923159956932, "loss_cls": 0.12392384558916092, "lr": 5e-05, "num_foreground": 2988.5, "time": 0.5394243679997999, "total_loss": 0.260057982057333}
{"data_time": 0.008840034500053662, "eta_seconds": 452.7220436445384, "iteration": 4139, "loss_box_reg": 0.14772184938192368, "loss_cls": 0.12188054621219635, "lr": 5e-05, "num_foreground": 2951.5, "time": 0.5429438414998913, "total_loss": 0.2638031020760536}
{"data_time": 0.01323661550009092, "eta_seconds": 440.2171663665986, "iteration": 4159, "loss_box_reg": 0.1514585167169571, "loss_cls": 0.13610639423131943, "lr": 5e-05, "num_foreground": 3091.5, "time": 0.48640036999995573, "total_loss": 0.2892232909798622}
{"data_time": 0.009249153999917326, "eta_seconds": 429.2137204731107, "iteration": 4179, "loss_box_reg": 0.1597239077091217, "loss_cls": 0.12980001419782639, "lr": 5e-05, "num_foreground": 3153.0, "time": 0.5156400755001869, "total_loss": 0.28123511373996735}
{"data_time": 0.02086818549992131, "eta_seconds": 417.58175393546367, "iteration": 4199, "loss_box_reg": 0.16723523288965225, "loss_cls": 0.14204955846071243, "lr": 5e-05, "num_foreground": 3596.5, "time": 0.4894626729999345, "total_loss": 0.3082542270421982}
{"data_time": 0.012863033999792606, "eta_seconds": 406.3340556988585, "iteration": 4219, "loss_box_reg": 0.15968943387269974, "loss_cls": 0.13376272469758987, "lr": 5e-05, "num_foreground": 3322.5, "time": 0.524359182499893, "total_loss": 0.29404887557029724}
{"data_time": 0.009368818000211832, "eta_seconds": 398.06807843719344, "iteration": 4239, "loss_box_reg": 0.1594964787364006, "loss_cls": 0.1267101988196373, "lr": 5e-05, "num_foreground": 3102.5, "time": 0.5406337889999122, "total_loss": 0.2940562181174755}
{"data_time": 0.011703151499887099, "eta_seconds": 387.78917613160434, "iteration": 4259, "loss_box_reg": 0.1708124652504921, "loss_cls": 0.13575080782175064, "lr": 5e-05, "num_foreground": 3457.5, "time": 0.4971577849998994, "total_loss": 0.30775175243616104}
{"data_time": 0.009071088999917265, "eta_seconds": 375.50834609387016, "iteration": 4279, "loss_box_reg": 0.14405899494886398, "loss_cls": 0.12803539633750916, "lr": 5e-05, "num_foreground": 2826.5, "time": 0.4859246635001, "total_loss": 0.262335579842329}
{"data_time": 0.009649698500197701, "eta_seconds": 366.6829474171782, "iteration": 4299, "loss_box_reg": 0.15064240247011185, "loss_cls": 0.13813646137714386, "lr": 5e-05, "num_foreground": 2931.5, "time": 0.5399009530001422, "total_loss": 0.2905935049057007}
{"data_time": 0.010535618999938379, "eta_seconds": 355.0226896754691, "iteration": 4319, "loss_box_reg": 0.1529243215918541, "loss_cls": 0.13234666734933853, "lr": 5e-05, "num_foreground": 3127.5, "time": 0.5160192660002849, "total_loss": 0.2836645618081093}
{"data_time": 0.009154130999831978, "eta_seconds": 344.03800875239654, "iteration": 4339, "loss_box_reg": 0.15118049830198288, "loss_cls": 0.12503039464354515, "lr": 5e-05, "num_foreground": 3292.0, "time": 0.5098691774999224, "total_loss": 0.2700410857796669}
{"data_time": 0.009989951499846939, "eta_seconds": 328.8044021056046, "iteration": 4359, "loss_box_reg": 0.15682851523160934, "loss_cls": 0.12405620515346527, "lr": 5e-05, "num_foreground": 3003.5, "time": 0.48285344550004083, "total_loss": 0.2818981595337391}
{"data_time": 0.009505817500212288, "eta_seconds": 317.5712714205313, "iteration": 4379, "loss_box_reg": 0.15220870077610016, "loss_cls": 0.12135640159249306, "lr": 5e-05, "num_foreground": 3107.0, "time": 0.4988237279999339, "total_loss": 0.27571655809879303}
{"data_time": 0.008837565000021641, "eta_seconds": 308.72226146751336, "iteration": 4399, "loss_box_reg": 0.14570771902799606, "loss_cls": 0.12450811266899109, "lr": 5e-05, "num_foreground": 3158.5, "time": 0.53774507549997, "total_loss": 0.27340564876794815}
{"data_time": 0.00908324600004562, "eta_seconds": 300.4205253243515, "iteration": 4419, "loss_box_reg": 0.1641639843583107, "loss_cls": 0.12791762873530388, "lr": 5e-05, "num_foreground": 3308.0, "time": 0.5180225244998837, "total_loss": 0.29703207686543465}
{"data_time": 0.008909607500072525, "eta_seconds": 285.1283506996331, "iteration": 4439, "loss_box_reg": 0.15393151342868805, "loss_cls": 0.12621544301509857, "lr": 5e-05, "num_foreground": 3164.5, "time": 0.48206092400027956, "total_loss": 0.28248536214232445}
{"data_time": 0.00879095999994206, "eta_seconds": 278.8468441974044, "iteration": 4459, "loss_box_reg": 0.15319936722517014, "loss_cls": 0.12733710184693336, "lr": 5e-05, "num_foreground": 3181.5, "time": 0.5352395079999042, "total_loss": 0.2870022691786289}
{"data_time": 0.008843729499858455, "eta_seconds": 267.0372501049633, "iteration": 4479, "loss_box_reg": 0.1493423581123352, "loss_cls": 0.12146734073758125, "lr": 5e-05, "num_foreground": 2897.0, "time": 0.5048019304999798, "total_loss": 0.27171389386057854}
{"data_time": 0.008845332500186487, "eta_seconds": 252.9632471610762, "iteration": 4499, "loss_box_reg": 0.15484441071748734, "loss_cls": 0.12792979180812836, "lr": 5e-05, "num_foreground": 3289.5, "time": 0.49395987449997847, "total_loss": 0.2827742025256157}
{"data_time": 0.01105779300019094, "eta_seconds": 246.01052912151295, "iteration": 4519, "loss_box_reg": 0.15306182950735092, "loss_cls": 0.12942107766866684, "lr": 2.5000000000000006e-06, "num_foreground": 3249.5, "time": 0.4978280894999898, "total_loss": 0.28219229727983475}
{"data_time": 0.00961392700014585, "eta_seconds": 239.62591105257547, "iteration": 4539, "loss_box_reg": 0.15253255516290665, "loss_cls": 0.11809463798999786, "lr": 2.5000000000000006e-06, "num_foreground": 2775.0, "time": 0.5441173224999147, "total_loss": 0.26296907290816307}
{"data_time": 0.009553626000069926, "eta_seconds": 229.955226984021, "iteration": 4559, "loss_box_reg": 0.16181199252605438, "loss_cls": 0.12302938103675842, "lr": 2.5000000000000006e-06, "num_foreground": 3167.0, "time": 0.5370561815000201, "total_loss": 0.2850157618522644}
{"data_time": 0.00916271399978541, "eta_seconds": 218.83407495256893, "iteration": 4579, "loss_box_reg": 0.1594480276107788, "loss_cls": 0.12728218734264374, "lr": 2.5000000000000006e-06, "num_foreground": 3204.5, "time": 0.5174993455000276, "total_loss": 0.27967845648527145}
{"data_time": 0.00964878399963709, "eta_seconds": 209.19962662945704, "iteration": 4599, "loss_box_reg": 0.1486285999417305, "loss_cls": 0.1370198205113411, "lr": 2.5000000000000006e-06, "num_foreground": 3145.5, "time": 0.5318592600001466, "total_loss": 0.2819548323750496}
{"data_time": 0.009230272499962666, "eta_seconds": 198.76573003945919, "iteration": 4619, "loss_box_reg": 0.16317463666200638, "loss_cls": 0.13087555021047592, "lr": 2.5000000000000006e-06, "num_foreground": 3132.5, "time": 0.4909112319999167, "total_loss": 0.29110749810934067}
{"data_time": 0.008891959500260782, "eta_seconds": 188.70487225802867, "iteration": 4639, "loss_box_reg": 0.14977064728736877, "loss_cls": 0.127162653952837, "lr": 2.5000000000000006e-06, "num_foreground": 2915.5, "time": 0.5391690800001925, "total_loss": 0.2803538665175438}
{"data_time": 0.009128066500124987, "eta_seconds": 178.37216129708668, "iteration": 4659, "loss_box_reg": 0.15650784969329834, "loss_cls": 0.13045161962509155, "lr": 2.5000000000000006e-06, "num_foreground": 3007.5, "time": 0.5325105639999492, "total_loss": 0.2876141518354416}
{"data_time": 0.009333958499837536, "eta_seconds": 167.8695093330241, "iteration": 4679, "loss_box_reg": 0.14812300354242325, "loss_cls": 0.12777633219957352, "lr": 2.5000000000000006e-06, "num_foreground": 3003.0, "time": 0.5457741550001174, "total_loss": 0.2745325230062008}
{"data_time": 0.009489896500099348, "eta_seconds": 157.6353111024921, "iteration": 4699, "loss_box_reg": 0.15403307229280472, "loss_cls": 0.12424832955002785, "lr": 2.5000000000000006e-06, "num_foreground": 3274.5, "time": 0.5310140594999666, "total_loss": 0.2836228646337986}
{"data_time": 0.009826177499917321, "eta_seconds": 147.16120405249262, "iteration": 4719, "loss_box_reg": 0.1573668196797371, "loss_cls": 0.12229381874203682, "lr": 2.5000000000000006e-06, "num_foreground": 3227.5, "time": 0.5414121589999468, "total_loss": 0.2830255404114723}
{"data_time": 0.010506504500199298, "eta_seconds": 136.33178556597704, "iteration": 4739, "loss_box_reg": 0.15365877002477646, "loss_cls": 0.13181833922863007, "lr": 2.5000000000000006e-06, "num_foreground": 3198.0, "time": 0.4921350639999673, "total_loss": 0.28103606402873993}
{"data_time": 0.020870457000000897, "eta_seconds": 125.72845390947418, "iteration": 4759, "loss_box_reg": 0.1527998372912407, "loss_cls": 0.13026676326990128, "lr": 2.5000000000000006e-06, "num_foreground": 3113.0, "time": 0.5315958374999354, "total_loss": 0.2739110663533211}
{"data_time": 0.00871901000004982, "eta_seconds": 115.26816428400707, "iteration": 4779, "loss_box_reg": 0.1636389121413231, "loss_cls": 0.13512121886014938, "lr": 2.5000000000000006e-06, "num_foreground": 3167.0, "time": 0.4896540994998304, "total_loss": 0.2987601310014725}
{"data_time": 0.01063441800010878, "eta_seconds": 104.80579044301976, "iteration": 4799, "loss_box_reg": 0.15164704620838165, "loss_cls": 0.11869727075099945, "lr": 2.5000000000000006e-06, "num_foreground": 2945.0, "time": 0.4916444840000622, "total_loss": 0.2764785923063755}
{"data_time": 0.009580609999829903, "eta_seconds": 94.15262334949102, "iteration": 4819, "loss_box_reg": 0.15487181395292282, "loss_cls": 0.1236221194267273, "lr": 2.5000000000000006e-06, "num_foreground": 3083.5, "time": 0.495015830499824, "total_loss": 0.2750587873160839}
{"data_time": 0.008893124499991245, "eta_seconds": 83.7974575024748, "iteration": 4839, "loss_box_reg": 0.16438177973031998, "loss_cls": 0.14928827434778214, "lr": 2.5000000000000006e-06, "num_foreground": 3302.0, "time": 0.5342129354999088, "total_loss": 0.30612538009881973}
{"data_time": 0.008921215499867685, "eta_seconds": 73.52047986301386, "iteration": 4859, "loss_box_reg": 0.14886236190795898, "loss_cls": 0.11706186085939407, "lr": 2.5000000000000006e-06, "num_foreground": 2980.5, "time": 0.5138655560001553, "total_loss": 0.26689864695072174}
{"data_time": 0.009945602500010864, "eta_seconds": 63.04329252648881, "iteration": 4879, "loss_box_reg": 0.16334515064954758, "loss_cls": 0.1365913674235344, "lr": 2.5000000000000006e-06, "num_foreground": 3163.5, "time": 0.51053497099997, "total_loss": 0.29678263515233994}
{"data_time": 0.009207446499885918, "eta_seconds": 52.56859135248419, "iteration": 4899, "loss_box_reg": 0.14639515429735184, "loss_cls": 0.12076602876186371, "lr": 2.5000000000000006e-06, "num_foreground": 3285.5, "time": 0.4993052280001393, "total_loss": 0.26544635742902756}
{"data_time": 0.009501234500021383, "eta_seconds": 42.20126357399022, "iteration": 4919, "loss_box_reg": 0.14937365800142288, "loss_cls": 0.13008686155080795, "lr": 2.5000000000000006e-06, "num_foreground": 3037.0, "time": 0.5083275869999397, "total_loss": 0.27781737595796585}
{"data_time": 0.01012535800009573, "eta_seconds": 31.34294545799139, "iteration": 4939, "loss_box_reg": 0.15937574207782745, "loss_cls": 0.13449834287166595, "lr": 2.5000000000000006e-06, "num_foreground": 3154.5, "time": 0.4802998600000592, "total_loss": 0.29446179419755936}
{"data_time": 0.010844702499753112, "eta_seconds": 20.969712461501103, "iteration": 4959, "loss_box_reg": 0.14807292073965073, "loss_cls": 0.11604660749435425, "lr": 2.5000000000000006e-06, "num_foreground": 2935.0, "time": 0.5149829499998759, "total_loss": 0.2664880156517029}
{"data_time": 0.008736558500004321, "eta_seconds": 10.603249881003194, "iteration": 4979, "loss_box_reg": 0.17202074825763702, "loss_cls": 0.14727400988340378, "lr": 2.5000000000000006e-06, "num_foreground": 3449.0, "time": 0.5004340085001786, "total_loss": 0.32490427047014236}
{"bbox/AP": 37.463720356044206, "bbox/AP-activated7": NaN, "bbox/AP-non-activated": 37.463720356044206, "bbox/AP50": 90.84920172864437, "bbox/AP75": 18.62279732289113, "bbox/APl": 33.98976339085616, "bbox/APm": 37.79973313509233, "bbox/APs": 13.465346534653467, "data_time": 0.009208489999991798, "eta_seconds": 0.5179316040000685, "iteration": 4999, "loss_box_reg": 0.16133182495832443, "loss_cls": 0.13213460892438889, "lr": 2.5000000000000006e-06, "num_foreground": 3347.0, "time": 0.5137555364999571, "total_loss": 0.2853384427726269}
